<svg width="337" height="41" viewBox="0 0 337 41" fill="none" xmlns="http://www.w3.org/2000/svg">
<path opacity="0.5" d="M1 40H336" stroke="#7A86AA" stroke-linecap="round"/>
<path d="M46.264 17.208C48.712 17.208 50.456 15.672 50.456 13.24V5.8H48.984V13.176C48.984 14.728 48.056 15.752 46.264 15.752C44.472 15.752 43.544 14.728 43.544 13.176V5.8H42.056V13.24C42.056 15.672 43.816 17.208 46.264 17.208ZM53.7091 11.16C53.7091 10.44 54.4131 10.088 55.1331 10.088C55.8371 10.088 56.5411 10.392 56.8451 11.112L58.0131 10.456C57.5011 9.416 56.4451 8.792 55.1331 8.792C53.5171 8.792 52.3011 9.768 52.3011 11.176C52.3011 14.072 56.7811 13.096 56.7811 14.808C56.7811 15.592 56.0451 15.896 55.1971 15.896C54.2051 15.896 53.4691 15.416 53.2131 14.648L52.0131 15.336C52.4771 16.44 53.5971 17.208 55.1971 17.208C56.9091 17.208 58.1891 16.296 58.1891 14.808C58.1891 11.864 53.7091 12.872 53.7091 11.16ZM60.5945 13.64H67.2985C67.3305 13.432 67.3465 13.224 67.3465 13.016C67.3465 10.776 65.7785 8.792 63.3625 8.792C60.8665 8.792 59.1705 10.632 59.1705 13C59.1705 15.4 60.8825 17.208 63.4585 17.208C65.0585 17.208 66.2745 16.488 66.9785 15.4L65.7945 14.728C65.3945 15.384 64.5945 15.896 63.4905 15.896C62.0025 15.896 60.8665 15.08 60.5945 13.64ZM63.3625 10.104C64.5625 10.104 65.6985 10.84 65.9385 12.424H60.5945C60.8185 11.032 61.8585 10.104 63.3625 10.104ZM76.7066 17.208C78.2746 17.208 79.6346 16.376 80.3066 15.128L79.1226 14.44C78.6746 15.272 77.7946 15.832 76.7066 15.832C75.1066 15.832 73.8906 14.6 73.8906 13C73.8906 11.384 75.1066 10.152 76.7066 10.152C77.7786 10.152 78.6746 10.712 79.0746 11.56L80.2426 10.888C79.6346 9.624 78.2906 8.792 76.7066 8.792C74.2906 8.792 72.4986 10.632 72.4986 13C72.4986 15.368 74.2906 17.208 76.7066 17.208ZM87.2166 9V13.24C87.2166 15.128 86.1766 15.88 84.8966 15.88C83.6646 15.88 82.9126 15.144 82.9126 13.832V9H81.5206V13.912C81.5206 15.96 82.7526 17.208 84.6246 17.208C85.7446 17.208 86.6246 16.792 87.2166 15.848V17H88.6086V9H87.2166ZM92.1199 10.344V9H90.7279V17H92.1199V12.76C92.1199 10.872 93.4159 10.264 94.6159 10.312V8.856C93.6079 8.856 92.6319 9.224 92.1199 10.344ZM97.3699 10.344V9H95.9779V17H97.3699V12.76C97.3699 10.872 98.6659 10.264 99.8659 10.312V8.856C98.8579 8.856 97.8819 9.224 97.3699 10.344ZM101.766 13.64H108.47C108.502 13.432 108.518 13.224 108.518 13.016C108.518 10.776 106.95 8.792 104.534 8.792C102.038 8.792 100.342 10.632 100.342 13C100.342 15.4 102.054 17.208 104.63 17.208C106.23 17.208 107.446 16.488 108.15 15.4L106.966 14.728C106.566 15.384 105.766 15.896 104.662 15.896C103.174 15.896 102.038 15.08 101.766 13.64ZM104.534 10.104C105.734 10.104 106.87 10.84 107.11 12.424H101.766C101.99 11.032 103.03 10.104 104.534 10.104ZM114.103 8.792C112.983 8.792 112.103 9.208 111.511 10.152V9H110.118V17H111.511V12.76C111.511 10.872 112.551 10.12 113.831 10.12C115.063 10.12 115.815 10.856 115.815 12.168V17H117.207V12.088C117.207 10.04 115.975 8.792 114.103 8.792ZM123.502 10.344V9H121.374V6.76L119.982 7.176V9H118.398V10.344H119.982V14.68C119.982 16.68 121.102 17.32 123.502 17V15.752C122.078 15.816 121.374 15.896 121.374 14.68V10.344H123.502ZM129.197 17H130.589V5.32H129.197V17ZM136.472 17.208C138.808 17.208 140.696 15.368 140.696 13C140.696 10.632 138.808 8.792 136.472 8.792C134.136 8.792 132.264 10.632 132.264 13C132.264 15.368 134.136 17.208 136.472 17.208ZM136.472 15.848C134.888 15.848 133.656 14.616 133.656 13C133.656 11.384 134.888 10.152 136.472 10.152C138.072 10.152 139.304 11.384 139.304 13C139.304 14.616 138.072 15.848 136.472 15.848ZM146.097 17.208C147.665 17.208 149.025 16.376 149.697 15.128L148.513 14.44C148.065 15.272 147.185 15.832 146.097 15.832C144.497 15.832 143.281 14.6 143.281 13C143.281 11.384 144.497 10.152 146.097 10.152C147.169 10.152 148.065 10.712 148.465 11.56L149.633 10.888C149.025 9.624 147.681 8.792 146.097 8.792C143.681 8.792 141.889 10.632 141.889 13C141.889 15.368 143.681 17.208 146.097 17.208ZM157.586 9V10.376C156.946 9.4 155.922 8.792 154.562 8.792C152.338 8.792 150.514 10.632 150.514 13C150.514 15.368 152.338 17.208 154.562 17.208C155.922 17.208 156.946 16.6 157.586 15.624V17H158.978V9H157.586ZM154.738 15.864C153.138 15.864 151.906 14.632 151.906 13C151.906 11.368 153.138 10.136 154.738 10.136C156.354 10.136 157.586 11.368 157.586 13C157.586 14.632 156.354 15.864 154.738 15.864ZM165.439 10.344V9H163.311V6.76L161.919 7.176V9H160.335V10.344H161.919V14.68C161.919 16.68 163.039 17.32 165.439 17V15.752C164.015 15.816 163.311 15.896 163.311 14.68V10.344H165.439ZM167.791 7.544C168.303 7.544 168.719 7.128 168.719 6.616C168.719 6.104 168.303 5.672 167.791 5.672C167.263 5.672 166.847 6.104 166.847 6.616C166.847 7.128 167.263 7.544 167.791 7.544ZM167.087 17H168.479V9H167.087V17ZM174.363 17.208C176.699 17.208 178.587 15.368 178.587 13C178.587 10.632 176.699 8.792 174.363 8.792C172.027 8.792 170.155 10.632 170.155 13C170.155 15.368 172.027 17.208 174.363 17.208ZM174.363 15.848C172.779 15.848 171.547 14.616 171.547 13C171.547 11.384 172.779 10.152 174.363 10.152C175.963 10.152 177.195 11.384 177.195 13C177.195 14.616 175.963 15.848 174.363 15.848ZM184.212 8.792C183.092 8.792 182.212 9.208 181.62 10.152V9H180.228V17H181.62V12.76C181.62 10.872 182.66 10.12 183.94 10.12C185.172 10.12 185.924 10.856 185.924 12.168V17H187.316V12.088C187.316 10.04 186.084 8.792 184.212 8.792Z" fill="#D9E2FF"/>
<path d="M13 8.727C12.3527 8.727 11.7199 8.91896 11.1816 9.2786C10.6434 9.63824 10.2239 10.1494 9.97614 10.7475C9.72842 11.3455 9.6636 12.0036 9.78989 12.6385C9.91618 13.2734 10.2279 13.8566 10.6856 14.3144C11.1434 14.7721 11.7266 15.0838 12.3615 15.2101C12.9964 15.3364 13.6545 15.2716 14.2525 15.0239C14.8506 14.7761 15.3618 14.3566 15.7214 13.8184C16.081 13.2801 16.273 12.6473 16.273 12C16.2706 11.1327 15.925 10.3016 15.3117 9.68826C14.6984 9.07497 13.8673 8.72938 13 8.727ZM20.282 11.182C20.1001 9.53015 19.3606 7.98963 18.1855 6.81454C17.0104 5.63944 15.4699 4.89994 13.818 4.718V3H12.182V4.718C10.52 4.87285 8.96428 5.60362 7.78395 6.78395C6.60362 7.96428 5.87285 9.51996 5.718 11.182H4V12.818H5.718C5.89994 14.4699 6.63944 16.0104 7.81454 17.1855C8.98963 18.3606 10.5301 19.1001 12.182 19.282V21H13.818V19.282C15.4699 19.1001 17.0104 18.3606 18.1855 17.1855C19.3606 16.0104 20.1001 14.4699 20.282 12.818H22V11.182H20.282ZM13 17.727C11.8673 17.727 10.76 17.3911 9.81825 16.7618C8.87645 16.1325 8.14241 15.2381 7.70894 14.1916C7.27548 13.1452 7.16207 11.9936 7.38304 10.8827C7.60402 9.77179 8.14946 8.75133 8.9504 7.9504C9.75133 7.14946 10.7718 6.60402 11.8827 6.38304C12.9936 6.16207 14.1452 6.27548 15.1916 6.70894C16.2381 7.14241 17.1325 7.87645 17.7618 8.81825C18.3911 9.76005 18.727 10.8673 18.727 12C18.7316 12.7534 18.5867 13.5002 18.3005 14.1971C18.0144 14.894 17.5927 15.5272 17.06 16.06C16.5272 16.5927 15.894 17.0144 15.1971 17.3005C14.5002 17.5867 13.7534 17.7316 13 17.727Z" fill="url(#paint0_linear)"/>
<defs>
<linearGradient id="paint0_linear" x1="13" y1="3" x2="13" y2="21" gradientUnits="userSpaceOnUse">
<stop stop-color="#00D2FF"/>
<stop offset="1" stop-color="#3A7BD5"/>
</linearGradient>
</defs>
</svg>
