<svg xmlns="http://www.w3.org/2000/svg" width="24" height="24" viewBox="0 0 24 24">
  <g id="Group_3492" data-name="Group 3492" transform="translate(-1089 -1696)">
    <g id="Group_3394" data-name="Group 3394" transform="translate(-1342 -46)">
      <g id="_011-car" data-name="011-car" transform="translate(2435 1748)">
        <path id="Path_24221" data-name="Path 24221" d="M15.868,13.144,9.29,9.152a3.63,3.63,0,0,0-.915-.489,1.741,1.741,0,0,0-1.4.328L3.335,11.2l-3.2,1.945a.277.277,0,0,0,.279.477l6.4-3.887a7.859,7.859,0,0,1,.755-.458c.544-.25.9.028,1.336.29l3.665,2.224,3.018,1.831A.277.277,0,0,0,15.868,13.144Z" transform="translate(0.001 -8.619)" fill="#6bb9f0"/>
        <path id="Path_24222" data-name="Path 24222" d="M19.38,61.152h-2c.027-.034-9.067-.034-9.04,0H6.5a.277.277,0,0,0,0,.553H19.38A.277.277,0,0,0,19.38,61.152Zm-3.2,0H9.555C9.582,61.118,16.148,61.118,16.175,61.152Z" transform="translate(-4.853 -49.517)" fill="#6bb9f0"/>
      </g>
      <g id="_013-motorcycle-of-big-size-black-silhouette" data-name="013-motorcycle-of-big-size-black-silhouette" transform="translate(2437.653 1753.517)">
        <g id="Group_3375" data-name="Group 3375" transform="translate(0 0)">
          <path id="Path_24224" data-name="Path 24224" d="M1.782,105.429A1.782,1.782,0,1,0,3.4,107.953l.423.326s3.111.022,3.282-.074c0,0-.386-1.054.1-1.5.052-.047.116-.1.188-.157a1.781,1.781,0,1,0,1.653-1.12l-.048,0,.211-.136-.134-.119s.386-.089.3-.282-1.025-1.351-1.025-1.351a.5.5,0,0,0-.177-.609l-.165.356s-.419-.29-.586-.234-.417.084-.5.206l-.078.072a.479.479,0,0,0,.106.317s1.286.4,1.348.685c0,0,.089.184-.3.228l-.078.1-.206.011-.373-.852a1.856,1.856,0,0,0-.54.239l.028.145a2.229,2.229,0,0,0-2.907.49,1.73,1.73,0,0,1-1.771-.624s-.011-.3-1.771-.245l.123.128a.256.256,0,0,0-.173.089c-.05.078.028.161.429.161,0,0,.908,1.036,1.6.975l.991.479.44.752s0,.065.005.163l-.338.072A1.782,1.782,0,0,0,1.782,105.429Zm7.268.546a1.236,1.236,0,1,1-1.236,1.236A1.237,1.237,0,0,1,9.05,105.975Zm-7.268,2.472a1.236,1.236,0,1,1,1.151-1.682l-1.306.278.084.462,1.283-.057A1.237,1.237,0,0,1,1.782,108.446Zm2.14-1.04a.49.49,0,0,0,.146.264l-.573.022a1.8,1.8,0,0,0,.054-.27Z" transform="translate(0 -102.934)" fill="#cce4ff" stroke="#6bb9f0" stroke-width="0.2"/>
        </g>
      </g>
    </g>
    <g id="Group_3395" data-name="Group 3395" transform="translate(66 -40)">
      <g id="Group_3392" data-name="Group 3392" transform="translate(-23 29)">
        <g id="Group_3390" data-name="Group 3390" transform="translate(27 -5)">
          <g id="Group_3387" data-name="Group 3387" transform="translate(48 11)">
            <g id="Group_3384" data-name="Group 3384" transform="translate(1182 -6387)">
              <rect id="Rectangle_2499" data-name="Rectangle 2499" width="24" height="24" transform="translate(-211 8088)" fill="none"/>
            </g>
          </g>
        </g>
      </g>
    </g>
  </g>
</svg>
